Name,Division,BodyweightKg,WeightClassKg,BirthDate,Squat1Kg,Squat2Kg,Squat3Kg,Best3SquatKg,Bench1Kg,Bench2Kg,Bench3Kg,Best3BenchKg,Deadlift1Kg,Deadlift2Kg,Deadlift3Kg,Best3DeadliftKg,TotalKg,Event,State,Equipment,Sex,Place
Ireland O'Neal,F_OCR_APF,66.5,67.5,2004-04-13,52.5,55,-57.5,55,32.5,-37.5,37.5,37.5,52.5,60,65,65,157.5,SBD,CA,Wraps,F,2
Amanda Silver,F_OCR_APF,80.07,82.5,1973-07-21,65,70,75,75,50,57.5,-62.5,57.5,70,80,85,85,217.5,SBD,CA,Wraps,F,1
Elena Betancart,F_OCR_APF,96,100,1985-01-09,77.5,90,112.5,112.5,-50,52.5,62.5,62.5,110,122.5,145,145,320,SBD,CA,Wraps,F,1
Kathy Caraccioli,F_OCR_APF,67.5,67.5,,117.5,127.5,137.5,137.5,80,-87.5,-87.5,80,147.5,160,-167.5,160,377.5,SBD,CA,Wraps,F,1
Kimberly Pfeiffer-Packer,F_OCR_APF,72.4,75,1961-06-10,162.5,172.5,182.5,182.5,95,100,102.5,102.5,160,175,185,185,470,SBD,CA,Wraps,F,1
Denee Zah,F_OCR_APF,119.75,110+,,-230,-230,230,230,130,137.5,-145,137.5,175,-195,-195,175,542.5,SBD,CA,Wraps,F,1
Denee Zah,F_OR_APF,119.75,110+,,,,,,130,137.5,-145,137.5,175,-195,-195,175,312.5,BD,CA,Raw,F,1
Denee Zah,F_OR_APF,119.75,110+,,,,,,130,137.5,-145,137.5,,,,,137.5,B,CA,Raw,F,1
Denee Zah,F_OR_APF,119.75,110+,,,,,,,,,,175,-195,-195,175,175,D,CA,Raw,F,1
David Onyango,M_OCR_APF,88.45,90,,137.5,147.5,162.5,162.5,102.5,110,117.5,117.5,152.5,170,185,185,465,SBD,CA,Wraps,M,1
Kevin Canning,M_OCR_APF,87.77,90,2005-05-23,115,130,150,150,95,102.5,115,115,140,155,167.5,167.5,432.5,SBD,CA,Wraps,M,2
Patrick O'Neal,M_OCR_APF,104.75,110,1976-06-22,150,167.5,182.5,182.5,25,100,110,110,200,217.5,227.5,227.5,520,SBD,CA,Wraps,M,2
Josue-Damian Manriquez,M_OCR_APF,105.25,110,1996-12-28,145,157.5,177.5,177.5,120,135,140,140,160,182.5,200,200,517.5,SBD,CA,Wraps,M,3
Adrian Rodriguez,M_OCR_APF,119.3,125,1993-08-27,205,222.5,235,235,137.5,150,-160,150,250,272.5,-285,272.5,657.5,SBD,CA,Wraps,M,1
Nathaniel Rodriguez,M_OCR_APF,155,140+,1993-08-27,250,-272.5,272.5,272.5,172.5,190,200,200,290,317.5,-327.5,317.5,790,SBD,CA,Wraps,M,1
Morong Yom Mo,M_OCR_APF,73.9,75,1984-10-19,165,175,182.5,182.5,117.5,122.5,127.5,127.5,192.5,210,-215,210,520,SBD,CA,Wraps,M,1
Robert Koski,M_OCR_APF,105.8,110,,252.5,262.5,-275,262.5,165,-180,,165,232.5,247.5,255,255,682.5,SBD,CA,Wraps,M,1
Michiel Breen,M_OR_APF,86.4,90,2001-10-16,,,,,152.5,-157.5,-160,152.5,200,212.5,227.5,227.5,380,BD,CA,Raw,M,1
Sean Perkins,M_OR_APF,74.4,75,2006-03-13,,,,,-145,155,160,160,190,200,210,210,370,BD,CA,Raw,M,1
Richard Harrison,M_OR_APF,81.64,82.5,1962-08-19,,,,,117.5,130,135,135,,,,,135,B,CA,Raw,M,1
Travis Woods,M_OR_APF,88.4,90,1997-09-15,,,,,182.5,-197.5,-210,182.5,,,,,182.5,B,CA,Raw,M,1
